<?xml version="1.0" encoding="UTF-8" standalone="no"?>
<!-- Generator: Adobe Illustrator 19.0.0, SVG Export Plug-In . SVG Version: 6.00 Build 0)  -->

<svg
   xmlns:dc="http://purl.org/dc/elements/1.1/"
   xmlns:cc="http://creativecommons.org/ns#"
   xmlns:rdf="http://www.w3.org/1999/02/22-rdf-syntax-ns#"
   xmlns:svg="http://www.w3.org/2000/svg"
   xmlns="http://www.w3.org/2000/svg"
   xmlns:sodipodi="http://sodipodi.sourceforge.net/DTD/sodipodi-0.dtd"
   xmlns:inkscape="http://www.inkscape.org/namespaces/inkscape"
   version="1.1"
   id="Capa_1"
   x="0px"
   y="0px"
   viewBox="0 0 480 480"
   style="enable-background:new 0 0 480 480;"
   xml:space="preserve"
   sodipodi:docname="003-success.svg"
   inkscape:version="0.92.3 (2405546, 2018-03-11)"><metadata
   id="metadata79"><rdf:RDF><cc:Work
       rdf:about=""><dc:format>image/svg+xml</dc:format><dc:type
         rdf:resource="http://purl.org/dc/dcmitype/StillImage" /></cc:Work></rdf:RDF></metadata><defs
   id="defs77" /><sodipodi:namedview
   pagecolor="#ffffff"
   bordercolor="#666666"
   borderopacity="1"
   objecttolerance="10"
   gridtolerance="10"
   guidetolerance="10"
   inkscape:pageopacity="0"
   inkscape:pageshadow="2"
   inkscape:window-width="1920"
   inkscape:window-height="1050"
   id="namedview75"
   showgrid="false"
   inkscape:snap-global="false"
   inkscape:zoom="0.69532167"
   inkscape:cx="433.33033"
   inkscape:cy="362.00087"
   inkscape:window-x="0"
   inkscape:window-y="30"
   inkscape:window-maximized="1"
   inkscape:current-layer="Capa_1" />
<path
   style="fill:#008000;fill-opacity:1;stroke:none;stroke-width:8.50609493;stroke-linecap:round;stroke-linejoin:bevel;stroke-miterlimit:4;stroke-dasharray:none;stroke-opacity:1;paint-order:normal"
   d="m 146.08527,360.699 -13.83686,-15.14192 19.91137,-26.53879 19.91138,-26.53879 h 67.9327 67.93271 l 19.91568,26.53879 19.91567,26.53879 -13.82525,15.14192 -13.82525,15.14191 -17.80306,-19.40149 c -19.22901,-20.95547 -19.56709,-21.24252 -23.98283,-20.36275 -1.72427,0.34352 -4.10799,2.73614 -20.13379,20.20878 l -18.17797,19.81914 -18.17796,-19.81914 c -16.0258,-17.47264 -18.40953,-19.86526 -20.1338,-20.20878 -4.41573,-0.87977 -4.75381,-0.59272 -23.98282,20.36275 l -17.80307,19.40149 z"
   id="path891"
   inkscape:connector-curvature="0" /><path
   style="fill:#62331e;fill-opacity:1;stroke:none;stroke-width:4.32682657;stroke-linecap:round;stroke-linejoin:bevel;stroke-miterlimit:4;stroke-dasharray:none;stroke-opacity:1;paint-order:normal"
   d="M 25.782998,458.51613 C 26.346879,457.8278 49.474687,435.0452 75.015539,405.43092 104.9122,370.76613 107.49273,371.0446 121.69742,352.07178 l 16.83067,18.36827 c 9.25687,10.10254 17.4748,18.6329 18.26207,18.95634 1.97792,0.81259 4.64763,0.73539 6.5934,-0.19065 0.90624,-0.43132 9.45985,-9.36319 19.17255,-20.02039 l 17.53633,-19.24168 18.05689,19.7024 c 15.71994,17.15248 18.30366,19.75156 19.96366,20.08229 4.61275,0.91903 4.24599,1.22881 23.77723,-20.08229 l 18.05688,-19.7024 17.53634,19.24168 c 9.7127,10.6572 18.26631,19.58907 19.17254,20.02039 2.16307,1.02946 4.89887,0.98605 6.90599,-0.10958 0.89502,-0.48855 9.08003,-9.01516 18.18894,-18.94802 l 16.56164,-18.05973 45.21802,53.04961 c 23.87819,28.01381 45.25073,53.0873 47.15512,55.61926 l -5.18155,7.65442 H 239.96146 l -213.169803,4.57627 z"
   id="path893"
   inkscape:connector-curvature="0"
   sodipodi:nodetypes="cscsccccscsccccscsccccc" /><path
   style="fill:#eaba71;fill-opacity:1;stroke:none;stroke-width:4.15448904;stroke-linecap:round;stroke-linejoin:bevel;stroke-miterlimit:4;stroke-dasharray:none;stroke-opacity:1;paint-order:normal"
   d="m 186.11634,279.36231 c 0.1503,-0.49101 -4.81426,-24.37455 4.41327,-51.0172 l 11.70117,-50.66511 0.0639,-29.9378 c -0.002,-29.51291 -0.0341,-22.90399 -1.01756,-24.51395 -2.06181,-3.3752 2.35391,-6.7407 -8.2231,-6.74283 -5.20797,-0.001 -18.53667,0.77388 -20.91877,0.47915 -9.05443,-1.12035 -13.73229,-10.73756 -20.06424,-17.133755 -5.58755,-5.644259 -9.88679,-11.406943 -11.61695,-18.610281 -0.96369,-4.012279 -1.02297,-6.52715 -1.02634,-35.24785 l -2.03789,-32.515057 13.76845,-4.5762711 12.24301,4.0677971 2.04189,33.526996 c 0.008,31.402241 -0.41457,30.507255 2.35085,35.954149 1.82541,3.59542 6.82423,9.887229 10.86193,9.508339 13.78913,-1.293948 -3.54398,4.154116 61.43435,4.154116 64.97832,0 57.30249,-4.433364 63.46825,-7.713438 3.6054,-1.918007 8.02278,-3.885345 9.88075,-7.54488 2.68398,-5.28653 0.27022,-6.517742 0.27985,-37.664207 l 1.19609,-29.712601 13.5984,-1.525424 L 342.10169,16 339.23123,46.527092 c -3.2618,34.688868 -0.46138,34.377882 -4.92403,43.42471 -1.99509,4.044424 -0.59311,8.125527 -4.49052,12.031678 -5.20622,5.2179 -14.82728,10.184 -20.72546,12.14383 -5.29116,1.75814 -10.3711,1.84774 -21.50831,1.84774 -9.03178,0 -2.49047,5.65232 -4.11169,6.74278 -0.93999,0.63226 -4.72388,11.61326 -7.84369,-1.13447 -1.02767,1.74605 -0.54115,-3.1677 -0.52955,26.54417 l 0.0118,30.35363 15.09032,50.75942 3.9039,50.75942 -11.00161,6.23903 c -6.33054,0.0755 -18.76486,-1.95547 -12.85439,-6.23903 -6.29293,0.80111 -9.56778,-20.54777 -15.84019,-45.65965 -10.92057,-43.721 -10.45523,-29.45495 -11.98529,-30.99368 -4.47719,-4.50256 -1.62152,-11.91171 -3.59047,-5.8726 -0.43182,1.32446 -6.02738,14.73708 -11.81307,37.88491 -5.7857,23.14782 -3.62889,43.96477 -8.99241,42.98304 l 6.6118,8.52322 -46.34668,-4.57627 c -10.92019,-1.07826 7.57012,-2.0944 7.82489,-2.92666 z"
   id="path895"
   inkscape:connector-curvature="0"
   sodipodi:nodetypes="cscccccccccccccssscccccscccsccccccccsscsccscc" /><path
   style="fill:#fc2c6b;fill-opacity:1;stroke:none;stroke-width:4.67829514;stroke-linecap:round;stroke-linejoin:bevel;stroke-miterlimit:4;stroke-dasharray:none;stroke-opacity:1;paint-order:normal"
   d="m 302.20201,246.00247 c -3.24575,-0.40828 -5.96298,-0.81783 -6.03827,-0.9101 -0.0753,-0.0923 -3.817,-16.08263 -8.31491,-35.53411 l -8.17803,-35.36631 0.005,-25.55769 0.005,-25.55769 h 5.10941 c 7.2472,0 15.81506,-0.9768 21.19798,-2.41674 l 4.61889,-1.23557 2.09177,1.688 c 6.77504,5.46731 12.89846,13.41057 23.24007,30.14684 11.43595,18.50732 17.07945,25.80871 25.9773,33.6087 5.33812,4.67946 10.92263,8.15744 18.05419,11.24395 3.34857,1.44925 4.90314,2.40446 4.62434,2.84144 -0.23099,0.36207 -1.54118,1.90164 -2.91155,3.42129 -1.37035,1.51965 -5.81697,6.99038 -9.88139,12.15717 -4.06441,5.1668 -8.95197,11.17624 -10.86125,13.35429 -8.72373,9.95181 -19.19933,16.00121 -31.50111,18.19114 -5.4681,0.97342 -19.20667,0.93579 -27.2392,-0.0746 z"
   id="path897"
   inkscape:connector-curvature="0" /><path
   style="fill:#f8d393;fill-opacity:1;stroke:none;stroke-width:4.57062864;stroke-linecap:round;stroke-linejoin:bevel;stroke-miterlimit:4;stroke-dasharray:none;stroke-opacity:1;paint-order:normal"
   d="m 230.17669,81.068519 c -11.9043,-3.382502 -21.75935,-13.253296 -24.90681,-24.946611 -1.15398,-4.287197 -1.1478,-12.904665 0.0123,-17.230503 3.29672,-12.292431 13.01868,-21.883786 25.46038,-25.11831 4.44225,-1.154876 13.14371,-1.147821 17.54264,0.01422 12.49258,3.300098 22.23433,12.951134 25.42128,25.184583 1.1472,4.403633 1.14887,12.726559 0.003,17.08294 -3.19066,12.134804 -13.71049,22.399046 -25.84711,25.219118 -4.77959,1.110593 -13.40722,1.010371 -17.68614,-0.205443 z"
   id="path899"
   inkscape:connector-curvature="0" /><path
   style="fill:#93ddf8;fill-opacity:1;stroke:none;stroke-width:4.65888834;stroke-linecap:round;stroke-linejoin:bevel;stroke-miterlimit:4;stroke-dasharray:none;stroke-opacity:1;paint-order:normal"
   d="m 13.748587,248.70024 c 0,-2.76038 1.524826,-8.69432 3.073828,-11.96197 2.18835,-4.61635 6.607772,-9.30718 11.251021,-11.94196 4.009756,-2.2753 4.131541,-2.30201 10.497441,-2.30201 h 6.440622 l 4.858706,2.60771 c 2.672291,1.43423 5.372868,2.60769 6.001285,2.60769 2.838824,0 5.460811,-2.00344 8.938701,-6.82999 4.411857,-6.12272 8.301968,-9.67107 14.403468,-13.13809 6.858357,-3.89708 10.441711,-4.83469 18.437103,-4.82418 7.949208,0.0109 11.493998,0.94709 18.437098,4.87162 8.11748,4.58832 14.65343,12.09548 18.67898,21.45459 2.60584,6.05837 3.79189,10.70076 4.35,17.02676 l 0.3654,4.14165 H 76.615413 13.748587 Z"
   id="path901"
   inkscape:connector-curvature="0" /><path
   style="fill:#dd3ebb;fill-opacity:1;stroke:none;stroke-width:4.98476076;stroke-linecap:round;stroke-linejoin:bevel;stroke-miterlimit:4;stroke-dasharray:none;stroke-opacity:1;paint-order:normal"
   d="m 421.25778,313.74083 c -3.57552,-4.95646 -11.16757,-12.24139 -16.08661,-15.43587 l -3.4431,-2.23599 3.83158,-2.60806 c 5.15268,-3.50727 12.39333,-10.555 16.01404,-15.58737 l 2.96218,-4.11707 2.00913,2.90523 c 4.5431,6.5694 12.2783,14.01491 19.1055,18.38995 l 1.47068,0.94246 -4.00507,2.79533 c -5.09183,3.55381 -12.20257,10.49703 -15.79962,15.42736 -1.53548,2.10463 -2.83699,3.81477 -2.89226,3.80033 -0.0553,-0.0145 -1.48018,-1.93878 -3.16645,-4.2763 z"
   id="path903"
   inkscape:connector-curvature="0" /><path
   style="fill:#dd3ebb;fill-opacity:1;stroke:none;stroke-width:4.81768942;stroke-linecap:round;stroke-linejoin:bevel;stroke-miterlimit:4;stroke-dasharray:none;stroke-opacity:1;paint-order:normal"
   d="M 54.294935,74.765585 C 51.764577,70.950427 43.658879,63.027915 38.697054,59.520212 c -2.294038,-1.621746 -4.09148,-3.021543 -3.994311,-3.110662 0.09717,-0.08912 1.813889,-1.316152 3.814935,-2.726741 6.032455,-4.252432 9.847892,-7.838494 14.052259,-13.207472 l 3.997625,-5.104968 2.417333,3.432977 c 3.237017,4.59705 10.380952,11.439828 15.574363,14.917816 l 4.230182,2.832921 -3.157311,1.912595 c -3.955522,2.396126 -14.726749,12.661077 -17.123854,16.318986 -0.989598,1.510099 -1.935705,2.7366 -2.102459,2.725554 -0.166755,-0.01103 -1.116652,-1.246579 -2.110881,-2.745633 z"
   id="path905"
   inkscape:connector-curvature="0" /><g
   id="g6"
   style="fill:#ffffff;fill-opacity:1">
	<g
   id="g4"
   style="fill:#ffffff;fill-opacity:1">
		<path
   d="M466.64,464L318.184,282.928C316.664,281.08,314.4,280,312,280h-1.528l-4.784-22.328    c5.064,0.696,10.104,1.168,15.096,1.168c15,0,29.624-4.048,43.672-17.592c4.92-4.736,9.6-11.248,14.56-18.152    c7.64-10.616,16.296-22.656,24.472-25.456c0.008-0.008,0.016-0.008,0.032-0.016c4.184-1.424,6.416-5.96,5-10.152    c-1.424-4.176-5.976-6.448-10.152-4.992c0,0-0.008,0-0.016,0c-10.8,3.704-22.672-2.776-29.544-9.416    c-7.568-7.304-12.904-16.792-18.552-26.832l-3.16-5.568c-4.664-8.112-10.248-16.776-17.472-24C343.176,106.448,352,90.256,352,72    V8c0-4.424-3.584-8-8-8h-32c-4.416,0-8,3.576-8,8v64c0,4.416-3.592,8-8,8h-20.32C283.312,71.496,288,60.304,288,48    c0-26.472-21.528-48-48-48s-48,21.528-48,48c0,12.304,4.688,23.496,12.32,32H184c-4.408,0-8-3.584-8-8V8c0-4.424-3.584-8-8-8h-32    c-4.416,0-8,3.576-8,8v64c0,30.872,25.12,56,56,56h8v47.16L169.528,280H168c-2.4,0-4.664,1.08-6.184,2.928L13.36,464H0v16h17.144    h445.712H480v-16H466.64z M333.216,148.648l3.088,5.448c5.96,10.6,12.128,21.56,21.376,30.496    c5.432,5.24,12.704,10.112,20.872,12.808c-4.384,5.04-8.488,10.744-12.528,16.36c-4.528,6.296-8.8,12.24-12.672,15.976    c-14.28,13.76-28.896,14.872-51.264,11.168L288,175.16V128h8c6.568,0,12.848-1.192,18.712-3.28    C322.32,130.912,328.104,139.76,333.216,148.648z M240,16c17.648,0,32,14.352,32,32s-14.352,32-32,32s-32-14.352-32-32    S222.352,16,240,16z M207.824,177.68c0.12-0.552,0.176-1.12,0.176-1.68v-56c0-4.424-3.584-8-8-8h-16c-22.056,0-40-17.944-40-40V16    h16v56c0,13.232,10.768,24,24,24h112c13.232,0,24-10.768,24-24V16h16v56c0,22.056-17.944,40-40,40h-16c-4.416,0-8,3.576-8,8v56    c0,0.56,0.056,1.128,0.176,1.68L294.104,280h-23.856l-22.488-89.936c-0.888-3.568-4.088-6.064-7.76-6.064s-6.872,2.496-7.76,6.064    L209.752,280h-23.856L207.824,177.68z M253.752,280h-27.504L240,224.984L253.752,280z M171.784,296H176h40h48h40h4.216    l39.856,48.616L320,372.688l-34.344-34.344c-3.128-3.128-8.184-3.128-11.312,0L240,372.688l-34.344-34.344    c-3.128-3.128-8.184-3.128-11.312,0L160,372.688l-28.072-28.072L171.784,296z M34.048,464l87.688-106.952l32.608,32.608    c3.128,3.128,8.184,3.128,11.312,0L200,355.312l34.344,34.344c3.128,3.128,8.184,3.128,11.312,0L280,355.312l34.344,34.344    c1.56,1.56,3.608,2.344,5.656,2.344c2.048,0,4.096-0.784,5.656-2.344l32.608-32.608L445.952,464H34.048z"
   id="path2"
   style="fill:#ffffff;fill-opacity:1" />
	</g>
</g>
<g
   id="g12"
   style="fill:#ffffff;fill-opacity:1">
	<g
   id="g10"
   style="fill:#ffffff;fill-opacity:1">
		<rect
   x="232"
   y="432"
   width="16"
   height="16"
   id="rect8"
   style="fill:#ffffff;fill-opacity:1" />
	</g>
</g>
<g
   id="g18"
   style="fill:#ffffff;fill-opacity:1">
	<g
   id="g16"
   style="fill:#ffffff;fill-opacity:1">
		<rect
   x="264"
   y="432"
   width="16"
   height="16"
   id="rect14"
   style="fill:#ffffff;fill-opacity:1" />
	</g>
</g>
<g
   id="g24"
   style="fill:#ffffff;fill-opacity:1">
	<g
   id="g22"
   style="fill:#ffffff;fill-opacity:1">
		<rect
   x="200"
   y="432"
   width="16"
   height="16"
   id="rect20"
   style="fill:#ffffff;fill-opacity:1" />
	</g>
</g>
<g
   id="g30"
   style="fill:#ffffff;fill-opacity:1">
	<g
   id="g28"
   style="fill:#ffffff;fill-opacity:1">
		<path
   d="M104,48C81.944,48,64,30.056,64,8c0-4.424-3.584-8-8-8s-8,3.576-8,8c0,22.056-17.944,40-40,40c-4.416,0-8,3.576-8,8    s3.584,8,8,8c22.056,0,40,17.944,40,40c0,4.424,3.584,8,8,8s8-3.576,8-8c0-22.056,17.944-40,40-40c4.416,0,8-3.576,8-8    S108.416,48,104,48z M56,75.176C51.272,67.336,44.664,60.728,36.824,56C44.664,51.272,51.272,44.664,56,36.824    C60.728,44.664,67.336,51.272,75.176,56C67.336,60.728,60.728,67.336,56,75.176z"
   id="path26"
   style="fill:#ffffff;fill-opacity:1" />
	</g>
</g>
<g
   id="g36"
   style="fill:#ffffff;fill-opacity:1">
	<g
   id="g34"
   style="fill:#ffffff;fill-opacity:1">
		<path
   d="M472,288c-22.056,0-40-17.944-40-40c0-4.424-3.584-8-8-8c-4.416,0-8,3.576-8,8c0,22.056-17.944,40-40,40    c-4.416,0-8,3.576-8,8s3.584,8,8,8c22.056,0,40,17.944,40,40c0,4.424,3.584,8,8,8c4.416,0,8-3.576,8-8c0-22.056,17.944-40,40-40    c4.416,0,8-3.576,8-8S476.416,288,472,288z M424,315.176c-4.728-7.84-11.336-14.456-19.176-19.176    c7.848-4.728,14.448-11.336,19.176-19.176c4.728,7.84,11.336,14.456,19.176,19.176C435.336,300.728,428.728,307.336,424,315.176z"
   id="path32"
   style="fill:#ffffff;fill-opacity:1" />
	</g>
</g>
<g
   id="g42"
   style="fill:#ffffff;fill-opacity:1">
	<g
   id="g40"
   style="fill:#ffffff;fill-opacity:1">
		<path
   d="M96,192c-16.032,0-31.184,6.888-41.752,18.712C49.672,208.928,44.84,208,40,208c-22.056,0-40,17.944-40,40    c0,3.144,0.456,6.416,1.392,10.016C2.304,261.536,5.488,264,9.136,264H143.28c3.904,0,7.24-2.824,7.888-6.68    C151.728,254,152,250.944,152,248C152,217.128,126.88,192,96,192z M16,248c0-13.232,10.768-24,24-24c4.312,0,8.48,1.2,12.376,3.56    c3.624,2.208,8.32,1.192,10.728-2.28C70.592,214.464,82.888,208,96,208c22.056,0,40,17.944,40,40H16z"
   id="path38"
   style="fill:#ffffff;fill-opacity:1" />
	</g>
</g>
<g
   id="g44">
</g>
<g
   id="g46">
</g>
<g
   id="g48">
</g>
<g
   id="g50">
</g>
<g
   id="g52">
</g>
<g
   id="g54">
</g>
<g
   id="g56">
</g>
<g
   id="g58">
</g>
<g
   id="g60">
</g>
<g
   id="g62">
</g>
<g
   id="g64">
</g>
<g
   id="g66">
</g>
<g
   id="g68">
</g>
<g
   id="g70">
</g>
<g
   id="g72">
</g>
</svg>